\begin{tikzpicture}[scale=2]
	\begin{pgfonlayer}{nodelayer}
		\node [style=basic] (6) at (-3, 0) {\color{rwth-green}a:5};
		\node [style=basic] (7) at (0, 0) {\color{rwth-green}b:3};
		\node [style=basic] (8) at (3, 0) {\color{rwth-green}s:3};
		\node [style=basic] (9) at (6, 0) {\color{rwth-green}t:2};
		\node [style=basic] (10) at (9, 0) {\color{rwth-green}q:2};
		\node [style=basic] (11) at (6, 3) {q:1};
		\node [style=basic] (12) at (3, 3) {t:1};
		\node [style=basic] (13) at (0, 3) {s:1};
		\node [style=basic] (14) at (-3, 6) {b:1};
		\node [style=basic] (15) at (0, 6) {t:1};
		\node [style=basic] (16) at (-6, 3) {.};
	\end{pgfonlayer}
	\begin{pgfonlayer}{edgelayer}
		\draw [style=standard] (16) to (6);
		\draw [style=standard] (16) to (14);
		\draw [style=standard] (14) to (15);
		\draw [style=standard] (6) to (13);
		\draw [style=standard] (13) to (12);
		\draw [style=standard] (6) to (7);
		\draw [style=standard] (7) to (8);
		\draw [style=standard] (8) to (11);
		\draw [style=standard] (8) to (9);
		\draw [style=standard] (9) to (10);
	\end{pgfonlayer}
\end{tikzpicture}
