\begin{tikzpicture}
	\begin{pgfonlayer}{nodelayer}
		\node [style=sketch] (0) at (0, 7) {};
		\node [style=sketch] (1) at (-3, 5) {};
		\node [style=sketch] (2) at (3, 5) {};
		\node [style=sketch] (3) at (-1, 3) {};
		\node [style=sketch] (4) at (-5, 3) {};
		\node [style=sketch] (5) at (1, 3) {};
		\node [style=sketch] (6) at (5, 3) {};
		\node [style=sketch] (7) at (-6, -1) {};
		\node [style=sketch] (8) at (-5, -1) {};
		\node [style=sketch] (9) at (6, -1) {};
		\node [style=none] (10) at (-6, 1) {};
		\node [style=none] (11) at (-2, 1) {};
		\node [style=none] (12) at (0, 1) {};
		\node [style=none] (13) at (6, 1) {};
		\node [style=none] (14) at (5.5, 1) {};
		\node [style=none] (15) at (-5.75, 1) {};
		\node [style=none] (16) at (-5.25, 1) {};
		\node [style=none] (17) at (8, -1) {};
		\node [style=none] (18) at (8, 7) {};
		\node [style=none] (19) at (12, -1) {};
		\node [style=none] (20) at (11.5, -1) {};
		\node [style=none] (21) at (9, 3) {};
		\node [style=none] (22) at (11.5, 7) {};
		\node [style=none] (23) at (-7, -1) {};
		\node [style=none] (24) at (7, -1) {};
		\node [style=none] (27) at (-7, 3) {};
		\node [style=none] (28) at (7, 3) {};
		\node [style=none] (29) at (-7, 5) {};
		\node [style=none] (30) at (7, 5) {};
		\node [style=none] (31) at (-7, 7) {};
		\node [style=none] (32) at (7, 7) {};
		\node [style=none] (33) at (7.5, 7) {1};
		\node [style=none] (34) at (7.5, 5) {2};
		\node [style=none] (35) at (7.5, 3) {3};
		\node [style=none] (36) at (7.5, -1) {l};
		\node [style=none] (37) at (9.5, -0.5) {\scriptsize importance};
		\node [style=none] (38) at (9, -1) {};
		\node [style=none] (39) at (9, -1.5) {};
		\node [style=none] (40) at (11.5, -1.5) {};
		\node [style=none] (41) at (9, -2) {\scriptsize high};
		\node [style=none] (42) at (11.5, -2) {\scriptsize low};
		\node [style=none] (43) at (-4, 7.25) {\scriptsize Master Document Graph};
	\end{pgfonlayer}
	\begin{pgfonlayer}{edgelayer}
		\draw (0) to (1);
		\draw (0) to (2);
		\draw (1) to (4);
		\draw (1) to (3);
		\draw (2) to (5);
		\draw (2) to (6);
		\draw [style=hint] (4) to (10.center);
		\draw [style=hint] (3) to (11.center);
		\draw [style=hint] (5) to (12.center);
		\draw [style=hint] (6) to (13.center);
		\draw [style=hint] (15.center) to (7);
		\draw [style=hint] (16.center) to (8);
		\draw [style=hint] (14.center) to (9);
		\draw (18.center) to (17.center);
		\draw (17.center) to (19.center);
		\draw [in=90, out=-90] (22.center) to (21.center);
		\draw [in=90, out=-90] (21.center) to (20.center);
		\draw [style=hint] (31.center) to (32.center);
		\draw [style=hint] (29.center) to (30.center);
		\draw [style=hint] (27.center) to (28.center);
		\draw [style=hint] (23.center) to (24.center);
		\draw (38.center) to (39.center);
		\draw (20.center) to (40.center);
	\end{pgfonlayer}
\end{tikzpicture}
