\begin{tikzpicture}[scale=2]
	\begin{pgfonlayer}{nodelayer}
		\node [style=basic] (0) at (0, 0) {.};
		\node [style=basic] (1) at (3, 0) {\color{custom-red}a:3};
		\node [style=basic] (2) at (6, 0) {\color{polynom-blue-lighter}b:3};
		\node (3) at (10.5,0) {\small\textit{Conditional FP-Tree of s|\textsubscript{q}}};
		\node [style=basic] (4) at (0, -1) {\color{polynom-blue-lighter}.};
		\node [style=basic] (5) at (3, -1) {\color{polynom-blue-lighter}a:3};
		\node (6) at (7.5,-1) {\small\textit{Conditional FP-Tree of b|\textsubscript{sq}}};
		\node [style=basic] (7) at (0, -2) {\color{polynom-blue-lighter}.};
		\node (8) at (4.5,-2) {\small\textit{Conditional FP-Tree of a|\textsubscript{bsq}}};
	\end{pgfonlayer}
	\begin{pgfonlayer}{edgelayer}
		\draw [style=standard] (0) to (1);
		\draw [style=lighter] (1) to (2);
		\draw [style=lighter] (4) to (5);
	\end{pgfonlayer}
\end{tikzpicture}
