\begin{tikzpicture}[scale=2]
	\begin{pgfonlayer}{nodelayer}
		\node [style=basic] (0) at (0, 0) {.};
		\node [style=basic] (1) at (3, 0) {a:3};
		\node (2) at (7.5,0) {\small\textit{Conditional FP-Tree of b|\textsubscript{q}}};
	\end{pgfonlayer}
	\begin{pgfonlayer}{edgelayer}
		\draw [style=standard] (0) to (1);
	\end{pgfonlayer}
\end{tikzpicture}
