\begin{tikzpicture}[scale=2]
	\begin{pgfonlayer}{nodelayer}
	  \node [style=basic] (28) at (-15, 12) {.};
	  \node [style=basic] (29) at (-12, 12) {a:4};
	  \node [style=basic] (30) at (-9, 12) {b:3};
		\node [style=basic] (6) at (-12, 3) {a:5};
		\node [style=basic] (7) at (-9, 3) {b:3};
		\node [style=basic] (8) at (-6, 3) {s:3};
		\node [style=basic] (9) at (-3, 3) {\color{polynom-blue-lighter}t:2};
		\node [style=basic] (10) at (0, 3) {\color{polynom-blue-lighter}q:2};
		\node [style=basic] (11) at (-3, 6) {\color{polynom-blue-lighter}q:1};
		\node [style=basic] (12) at (-6, 6) {\color{polynom-blue-lighter}t:1};
		\node [style=basic] (13) at (-9, 6) {s:1};
		\node [style=basic] (14) at (-12, 9) {\color{polynom-blue-lighter}b:1};
		\node [style=basic] (15) at (-9, 9) {\color{polynom-blue-lighter}t:1};
		\node [style=basic] (16) at (-15, 6) {.};
	\end{pgfonlayer}
	\begin{pgfonlayer}{edgelayer}
	  \draw [style=standard] (28) to (29);
	  \draw [style=standard] (29) to (30);
		\draw [style=standard] (16) to (6);
		\draw [style=lighter] (16) to (14);
		\draw [style=lighter] (14) to (15);
		\draw [style=standard] (6) to (13);
		\draw [style=lighter] (13) to (12);
		\draw [style=standard] (6) to (7);
		\draw [style=standard] (7) to (8);
		\draw [style=lighter] (8) to (11);
		\path [style=lighter] (8) to (9);
		\draw [style=lighter] (9) to (10);
		\draw [style=link-l, in=-45, out=120] (10) to (11);
		\draw [style=link-l, in=-45, out=120] (9) to (12);
		\draw [style=link-l, in=-60, out=135] (12) to (15);
		\draw [style=link-s, in=-45, out=120] (8) to (13);
		\draw [style=link-l, in=-75, out=105, looseness=0.75] (7) to (14);
	\end{pgfonlayer}
\end{tikzpicture}
