\begin{tikzpicture}[scale=2]
	\begin{pgfonlayer}{nodelayer}
		\node [style=basic] (0) at (0, 0) {\color{polynom-blue-lighter}.};
		\node [style=basic] (1) at (3, 0) {\color{polynom-blue-lighter}a:3};
		\node (2) at (7.5,0) {\small\textit{Conditional FP-Tree of b|\textsubscript{q}}};
		\node [style=basic] (3) at (0, -1) {\color{polynom-blue-lighter}.};
		\node (4) at (4.5,-1) {\small\textit{Conditional FP-Tree of a|\textsubscript{bq}}};
	\end{pgfonlayer}
	\begin{pgfonlayer}{edgelayer}
		\draw [style=lighter] (0) to (1);
	\end{pgfonlayer}
\end{tikzpicture}
