\begin{tikzpicture}[scale=2]
	\begin{pgfonlayer}{nodelayer}
		\node [style=basic] (0) at (0, 5) {.};
		\node [style=basic] (1) at (-3, 2) {a:3};
		\node [style=basic] (2) at (3, 2) {b:1};
		\node [style=basic] (3) at (0, -1) {s:1};
		\node [style=basic] (4) at (-3, -1) {b:2};
		\node [style=basic] (5) at (-3, -4) {s:2};
		\node [style=basic] (6) at (-6, 2) {a};
		\node [style=basic] (7) at (-6, -1) {b};
		\node [style=basic] (8) at (-6, -4) {s};
	\end{pgfonlayer}
	\begin{pgfonlayer}{edgelayer}
		\draw [style=link-s] (6) to (1);
		\draw [style=link-s] (7) to (4);
		\draw [style=link-s] (8) to (5);
		\draw [style=link-s, in=-150, out=30, looseness=1.25] (5) to (3);
		\draw [style=link-s, in=-180, out=0] (4) to (2);
		\draw [style=standard] (0) to (1);
		\draw [style=standard] (0) to (2);
		\draw [style=standard] (1) to (4);
		\draw [style=standard] (1) to (3);
		\draw [style=standard] (4) to (5);
	\end{pgfonlayer}
\end{tikzpicture}
