\begin{tikzpicture}[scale=2]
	\begin{pgfonlayer}{nodelayer}
		\node [style=basic] (6) at (0, 3) {\color{polynom-blue-lighter}a:5};
		\node [style=basic] (7) at (0, 0) {\color{polynom-blue-lighter}b:3};
		\node [style=basic] (8) at (0, -3) {\color{polynom-blue-lighter}s:3};
		\node [style=basic] (9) at (0, -6) {\color{polynom-blue-lighter}t:2};
		\node [style=basic] (10) at (0, -9) {\color{polynom-blue-lighter}q:2};
		\node [style=basic] (11) at (3, -6) {\color{polynom-blue-lighter}q:1};
		\node [style=basic] (12) at (3, -3) {\color{polynom-blue-lighter}t:1};
		\node [style=basic] (13) at (3, 0) {\color{polynom-blue-lighter}s:1};
		\node [style=basic] (14) at (6, 3) {\color{polynom-blue-lighter}b:1};
		\node [style=basic] (15) at (6, 0) {\color{polynom-blue-lighter}t:1};
		\node [style=basic] (16) at (3, 6) {\color{polynom-blue-lighter}.};
		\node [style=basic] (23) at (-3, 3) {\color{polynom-blue-light}a};
		\node [style=basic] (24) at (-3, 0) {\color{polynom-blue-light}b};
		\node [style=basic] (25) at (-3, -3) {\color{polynom-blue-light}s};
		\node [style=basic] (26) at (-3, -6) {\color{polynom-blue-light}t};
		\node [style=basic] (27) at (-3, -9) {\color{polynom-blue-light}q};
		\node [style=none] (28) at (-4.5, 4.5) {};
		\node [style=none] (29) at (-1.5, 4.5) {};
		\node [style=none] (30) at (-4.5, -10.5) {};
		\node [style=none] (31) at (-1.5, -10.5) {};
		\node [style=none] (32) at (-3.75, 3.75) {};
		\node [style=none] (33) at (-0.75, 3.75) {};
		\node [style=none] (34) at (-3.75, 2.25) {};
		\node [style=none] (35) at (-0.75, 2.25) {};
		\node [style=none] (36) at (-1.5, 4) {};
		\node [style=none] (37) at (-1.5, 2) {};
	\end{pgfonlayer}
	\begin{pgfonlayer}{edgelayer}
		\draw [style=lighter] (16) to (6);
		\draw [style=lighter] (16) to (14);
		\draw [style=lighter] (14) to (15);
		\draw [style=lighter] (6) to (13);
		\draw [style=lighter] (13) to (12);
		\draw [style=lighter] (6) to (7);
		\draw [style=lighter] (7) to (8);
		\draw [style=lighter] (8) to (11);
		\draw [style=lighter] (8) to (9);
		\draw [style=lighter] (9) to (10);
		\draw [style=link-s] (23) to (6);
		\draw [style=link-s] (24) to (7);
		\draw [style=link-s] (25) to (8);
		\draw [style=link-s] (26) to (9);
		\draw [style=link-s] (27) to (10);
		\draw [style=link-l, in=-135, out=30] (10) to (11);
		\draw [style=link-l, in=-135, out=30] (9) to (12);
		\draw [style=link-l, in=-150, out=45] (12) to (15);
		\draw [style=link-l, in=-135, out=30] (8) to (13);
		\draw [style=link-l, in=-165, out=15, looseness=0.75] (7) to (14);
		\draw [style=standard] (36.center)
			 to (29.center)
			 to (28.center)
			 to (30.center)
			 to (31.center)
			 to (37.center);
		\draw [style=complement] (33.center)
			 to (35.center)
			 to (34.center)
			 to (32.center)
			 to cycle;
	\end{pgfonlayer}
\end{tikzpicture}
