\begin{tikzpicture}[scale=2]
	\begin{pgfonlayer}{nodelayer}
		\node [style=basic] (6) at (0, 3) {\color{polynom-blue-light}a:5};
		\node [style=basic] (7) at (0, 0) {\color{polynom-blue-light}b:3};
		\node [style=basic] (8) at (0, -3) {\color{polynom-blue-light}s:3};
		\node [style=basic] (9) at (0, -6) {\color{polynom-blue-light}t:2};
		\node [style=basic] (10) at (0, -9) {\color{polynom-blue-light}q:2};
		\node [style=basic] (11) at (3, -6) {\color{polynom-blue-light}q:1};
		\node [style=basic] (12) at (3, -3) {\color{polynom-blue-light}t:1};
		\node [style=basic] (13) at (3, 0) {\color{polynom-blue-light}s:1};
		\node [style=basic] (14) at (6, 3) {\color{polynom-blue-lighter}b:1};
		\node [style=basic] (15) at (6, 0) {\color{polynom-blue-lighter}t:1};
		\node [style=basic] (16) at (3, 6) {\color{polynom-blue-lighter}.};
		\node [style=basic] (23) at (-3, 3) {\color{polynom-blue-lighter}a};
		\node [style=basic] (24) at (-3, 0) {\color{polynom-blue-lighter}b};
		\node [style=basic] (25) at (-3, -3) {\color{polynom-blue-lighter}s};
		\node [style=basic] (26) at (-3, -6) {\color{polynom-blue-lighter}t};
		\node [style=basic] (27) at (-3, -9) {\color{polynom-blue-lighter}q};
		\node [style=none] (28) at (-1.5, 4.5) {};
		\node [style=none] (29) at (4.5, 4.5) {};
		\node [style=none] (30) at (-1.5, -10.5) {};
		\node [style=none] (31) at (4.5, -10.5) {};
	\end{pgfonlayer}
	\begin{pgfonlayer}{edgelayer}
		\draw [style=lighter] (16) to (6);
		\draw [style=lighter] (16) to (14);
		\draw [style=lighter] (14) to (15);
		\draw [style=standard] (6) to (13);
		\draw [style=standard] (13) to (12);
		\draw [style=standard] (6) to (7);
		\draw [style=standard] (7) to (8);
		\draw [style=standard] (8) to (11);
		\draw [style=standard] (8) to (9);
		\draw [style=standard] (9) to (10);
		\draw [style=link-l] (23) to (6);
		\draw [style=link-l] (24) to (7);
		\draw [style=link-l] (25) to (8);
		\draw [style=link-l] (26) to (9);
		\draw [style=link-l] (27) to (10);
		\draw [style=link-s, in=-135, out=30] (10) to (11);
		\draw [style=link-s, in=-135, out=30] (9) to (12);
		\draw [style=link-s, in=-150, out=45] (12) to (15);
		\draw [style=link-s, in=-135, out=30] (8) to (13);
		\draw [style=link-s, in=-165, out=15, looseness=0.75] (7) to (14);
		\draw [style=standard] (28.center)
			 to (29.center)
			 to (31.center)
			 to (30.center)
			 to cycle;
	\end{pgfonlayer}
\end{tikzpicture}
